<svg width="8" height="12" viewBox="0 0 8 12" fill="none" xmlns="http://www.w3.org/2000/svg">
<path d="M6 6L6.70711 6.70711L7.41421 6L6.70711 5.29289L6 6ZM0.292893 1.70711L5.29289 6.70711L6.70711 5.29289L1.70711 0.292893L0.292893 1.70711ZM5.29289 5.29289L0.292893 10.2929L1.70711 11.7071L6.70711 6.70711L5.29289 5.29289Z" fill="#060709"/>
</svg>
