<svg width="32" height="32" viewBox="0 0 32 32" fill="none" xmlns="http://www.w3.org/2000/svg">
<path d="M20.2365 18.0677C20.5763 18.0677 20.8519 17.7922 20.8519 17.4523C20.8519 17.1124 20.5763 16.8369 20.2365 16.8369C19.8966 16.8369 19.6211 17.1124 19.6211 17.4523C19.6211 17.7922 19.8966 18.0677 20.2365 18.0677Z" fill="black"/>
<path d="M23.0138 18.0677C23.3537 18.0677 23.6292 17.7922 23.6292 17.4523C23.6292 17.1124 23.3537 16.8369 23.0138 16.8369C22.674 16.8369 22.3984 17.1124 22.3984 17.4523C22.3984 17.7922 22.674 18.0677 23.0138 18.0677Z" fill="black"/>
<path d="M25.7931 18.0677C26.133 18.0677 26.4085 17.7922 26.4085 17.4523C26.4085 17.1124 26.133 16.8369 25.7931 16.8369C25.4533 16.8369 25.1777 17.1124 25.1777 17.4523C25.1777 17.7922 25.4533 18.0677 25.7931 18.0677Z" fill="black"/>
<path d="M1.01594 26.62H5.72803V30.3721C5.72799 30.5329 5.79089 30.6874 5.90327 30.8024C6.01565 30.9174 6.16859 30.9838 6.32935 30.9875H25.7931C25.9563 30.9875 26.1128 30.9227 26.2282 30.8073C26.3436 30.6919 26.4085 30.5353 26.4085 30.3721V26.62H28.2898C29.2019 26.6191 30.0765 26.2566 30.7218 25.6119C31.3672 24.9673 31.7306 24.0931 31.7324 23.1809V13.5493C31.7324 13.3861 31.6676 13.2295 31.5522 13.1141C31.4368 12.9987 31.2803 12.9339 31.117 12.9339H26.4085V6.00993C26.4087 5.9265 26.392 5.8439 26.3594 5.76712C26.3268 5.69035 26.2788 5.62102 26.2186 5.56333L21.8335 1.36114C21.7787 1.30412 21.7125 1.2593 21.6391 1.22961C21.5658 1.19992 21.4871 1.18603 21.408 1.18883H6.32935C6.16614 1.18883 6.00961 1.25366 5.89421 1.36907C5.7788 1.48448 5.71397 1.641 5.71397 1.80421V12.9339H1.01594C0.934604 12.932 0.853719 12.9466 0.778187 12.9768C0.702654 13.007 0.634045 13.0523 0.576513 13.1098C0.518981 13.1674 0.473723 13.236 0.443478 13.3115C0.413234 13.387 0.398633 13.4679 0.400559 13.5493V26.0222C0.405137 26.1824 0.471987 26.3344 0.586901 26.4461C0.701816 26.5577 0.855735 26.6201 1.01594 26.62ZM22.0234 3.24597L23.9504 5.09213L24.2634 5.39454H22.8146C22.6048 5.39454 22.4035 5.31118 22.2552 5.1628C22.1068 5.01442 22.0234 4.81318 22.0234 4.60333V3.24597ZM6.9588 2.4196H20.7926V4.60333C20.7936 5.13931 21.0069 5.65307 21.3859 6.03206C21.7649 6.41106 22.2786 6.62438 22.8146 6.62531H25.1777V12.9339H6.9588V2.4196ZM1.63133 14.1647H30.5017V23.1809C30.5007 23.7669 30.2673 24.3286 29.8526 24.7427C29.4379 25.1567 28.8758 25.3893 28.2898 25.3893H26.4085V22.4847C26.4085 22.3214 26.3436 22.1649 26.2282 22.0495C26.1128 21.9341 25.9563 21.8693 25.7931 21.8693C25.6299 21.8693 25.4734 21.9341 25.3579 22.0495C25.2425 22.1649 25.1777 22.3214 25.1777 22.4847V29.7567H6.9588V23.1H22.5052C22.6684 23.1 22.8249 23.0352 22.9403 22.9198C23.0557 22.8044 23.1206 22.6479 23.1206 22.4847C23.1206 22.3214 23.0557 22.1649 22.9403 22.0495C22.8249 21.9341 22.6684 21.8693 22.5052 21.8693H6.32935C6.16614 21.8693 6.00961 21.9341 5.89421 22.0495C5.7788 22.1649 5.71397 22.3214 5.71397 22.4847V25.3893H1.63133V14.1647Z" fill="black"/>
<path d="M21.4701 26.1064H10.1505C9.98733 26.1064 9.8308 26.1713 9.7154 26.2867C9.59999 26.4021 9.53516 26.5586 9.53516 26.7218C9.53516 26.885 9.59999 27.0416 9.7154 27.157C9.8308 27.2724 9.98733 27.3372 10.1505 27.3372H21.4701C21.6333 27.3372 21.7898 27.2724 21.9052 27.157C22.0206 27.0416 22.0855 26.885 22.0855 26.7218C22.0855 26.5586 22.0206 26.4021 21.9052 26.2867C21.7898 26.1713 21.6333 26.1064 21.4701 26.1064Z" fill="black"/>
</svg>
