<svg width="11" height="14" viewBox="0 0 11 14" fill="none" xmlns="http://www.w3.org/2000/svg">
<path d="M10.4146 3.00213L7.49788 0.0854492C7.44319 0.0307617 7.36914 0 7.29165 0H1.16665C0.523223 0 0 0.523223 0 1.16668V12.8334C0 13.4768 0.523223 14 1.16668 14H9.33335C9.97678 14 10.5 13.4768 10.5 12.8333V3.20832C10.5 3.13086 10.4692 3.05681 10.4146 3.00213ZM7.58332 0.995777L9.50422 2.91668H8.16665C7.84509 2.91668 7.58332 2.65491 7.58332 2.33335V0.995777ZM9.91668 12.8333C9.91668 13.1549 9.65491 13.4166 9.33335 13.4166H1.16668C0.845113 13.4166 0.583352 13.1549 0.583352 12.8333V1.16668C0.583352 0.845113 0.845113 0.583352 1.16668 0.583352H7V2.33335C7 2.97678 7.52322 3.5 8.16668 3.5H9.91668V12.8333Z" fill="#EC2029"/>
<path d="M6.73709 8.56263C6.46707 8.35014 6.21045 8.13169 6.03955 7.96079C5.81738 7.73862 5.61941 7.52329 5.44739 7.31821C5.71572 6.48907 5.83335 6.06155 5.83335 5.83367C5.83335 4.86553 5.48357 4.66699 4.95835 4.66699C4.5593 4.66699 4.08335 4.87434 4.08335 5.86159C4.08335 6.29682 4.32176 6.82518 4.79429 7.43927C4.67865 7.79216 4.54278 8.1992 4.39012 8.65806C4.31662 8.87823 4.23689 9.08216 4.15256 9.27072C4.08393 9.30121 4.01726 9.33224 3.95289 9.36443C3.72105 9.48037 3.50088 9.5846 3.29664 9.68145C2.36523 10.1224 1.75 10.414 1.75 10.99C1.75 11.4081 2.20432 11.667 2.625 11.667C3.16731 11.667 3.9862 10.9427 4.58434 9.72244C5.20527 9.47749 5.97718 9.29604 6.58643 9.1824C7.07462 9.5578 7.61381 9.91699 7.875 9.91699C8.59819 9.91699 8.75 9.49885 8.75 9.14822C8.75 8.45864 7.96214 8.45864 7.58332 8.45864C7.46569 8.45867 7.15012 8.49342 6.73709 8.56263ZM2.625 11.0837C2.45837 11.0837 2.34557 11.0051 2.33332 10.99C2.33332 10.7832 2.94998 10.4909 3.54643 10.2084C3.5843 10.1905 3.62277 10.1725 3.66179 10.154C3.22372 10.7892 2.79048 11.0837 2.625 11.0837ZM4.66668 5.86159C4.66668 5.25034 4.85639 5.25034 4.95835 5.25034C5.16458 5.25034 5.25003 5.25034 5.25003 5.83367C5.25003 5.95671 5.168 6.26433 5.01788 6.74457C4.78885 6.39194 4.66668 6.08974 4.66668 5.86159ZM4.89027 8.99644C4.9085 8.94574 4.92617 8.89447 4.94326 8.84263C5.05148 8.51792 5.14891 8.22625 5.23578 7.96364C5.35683 8.09694 5.48729 8.23338 5.62715 8.37322C5.68184 8.42791 5.81741 8.55095 5.99802 8.70503C5.6385 8.78337 5.25599 8.8805 4.89027 8.99644ZM8.16668 9.14825C8.16668 9.27928 8.16668 9.33367 7.89608 9.33539C7.81662 9.3183 7.6329 9.21007 7.40616 9.05569C7.48847 9.04658 7.54914 9.04202 7.58332 9.04202C8.01429 9.04202 8.13649 9.08416 8.16668 9.14825Z" fill="#EC2029"/>
</svg>
